{
    "n_to_save": 40,
    "selection": {
        "file": "no-track-cuts.json"
    },
    "sort_order": "d0_significance",
    "btagging_link": "",
    "variables": {
        "file": "trigger-track-halves.json"
    },
    "ip_prefix": "btagIp_"
}
