{
    "ints" : [
        "charge",
        "flavour",
        "pdgId",
        "barcode",
	"ftagTruthParentBarcode"
    ],
    "floats" : [
        "pt",
        "mass",
        "energy",
        "eta",
        "phi",
        "deta",
        "dphi",
        "dr",
	"displacementX",
	"displacementY",
        "displacementZ",
        "Lxy",
	"decayVertexDPhi",
	"decayVertexDEta"
    ]
}
