{
    "file": "fragments/pflow-base-minimum.json",
    "selection": {
        "truth_primary_vertex_matching": true
    },
    "dl2_configs": [],
    "variables": {
        "jet": {
            "chars": [
                "matchedToTruthJet"
            ]
        },
        "btagging": {
            "floats": [
                "GN2v01_pb",
                "GN2v01_pc",
                "GN2v01_pu",
                "GN2v01_ptau"
            ],
            "halves": [
                "DL1dv01_pu",
                "DL1dv01_pc",
                "DL1dv01_pb"
            ]
        },
        "eventwise": {
            "compressed": [
                "primaryVertexToBeamDisplacementX",
                "primaryVertexToBeamDisplacementY",
                "primaryVertexToBeamDisplacementZ",
                "primaryVertexToTruthVertexDisplacementX",
                "primaryVertexToTruthVertexDisplacementY",
                "primaryVertexToTruthVertexDisplacementZ"
            ]
        }
    },
    "tracks": [
        {
            "n_to_save": 40,
            "selection": {
                "file": "fragments/r22default-track-cuts.json"
            },
            "sort_order": "d0_significance",
            "btagging_link": "btaggingLink",
            "input_name": "BTagTrackToJetAssociator",
            "output_name": "tracks",
            "variables": {
                "file": "fragments/pflow-track-variables.json",
                "ints": [
                    "ftagTruthParentBarcode"
                ],
                "floats": [
                    "theta"
                ],
                "customs": [
                    "d0RelativeToBeamspot",
                    "d0RelativeToBeamspotUncertainty"
                ],
                "chars": [
                    "GN2v01_aux_TrackOrigin",
                    "GN2v01_aux_VertexIndex"
                ]
            },
            "ip_prefix": "btagIp_"
        }
    ],
    "ca_blocks": [
        {
            "block": "GNNAuxTaskMapper",
            "btagging_container": "BTagging_AntiKt4EMPFlow",
            "track_container": "InDetTrackParticles",
            "track_links": "GN2v01_TrackLinks",
            "track_aux_tasks": {
                "GN2v01_VertexIndex": "GN2v01_aux_VertexIndex",
                "GN2v01_TrackOrigin": "GN2v01_aux_TrackOrigin"
            }
        },
        {
            "block": "JetMatcher",
            "source_jets": [
                "AntiKt4TruthJets"
            ],
            "source_name": "TruthJet",
            "floats_to_copy": [
                "pt"
            ],
            "pt_priority_with_delta_r": 0.3
        }
    ],
    "truths": [
        {
            "association": {
                "file": "fragments/baseline-truth-kinematics.json",
                "particles": "truth_hadrons"
            },
            "output": {
                "n_to_save": 5,
                "sort_order": "pt"
            },
            "vars": {
                "file": "fragments/min-truth-variables.json"
            }
        }
    ]
}
