{   "mc21":true ,
    "mc24":false,
    "data":false,
    "offline_jets": false,
    "do_track_matching": false,
    "emtopo_jets": false,
    "additional_chains": [],

    "dumper": {
        "jet_collection": "tempJets",
        "calibration": {},
        "selection": {
            "minimum_jet_pt": 20000,
            "maximum_jet_absolute_eta": 2.5
        },
        "vertex_collection": "HLT_IDVertex_FS",
        "dl2_configs": [
        ],
        "variables": {
            "btagging": {
                "halves": [                
                "GN120220813_pb",
                "GN120220813_pc",
                "GN120220813_pu",
                "DL1d20211216_pb",
                "DL1d20211216_pc",
                "DL1d20211216_pu"
                ]
            },
            "jet" : {
                "ints": [
                    "HadronConeExclTruthLabelID"
                ],    
                "halves": [
                    "fastDIPS20211215_pb",
                    "fastDIPS20211215_pc",
                    "fastDIPS20211215_pu"
                ]
            },
            "default_mapping": {
                "file": "fragments/default-mapping.json"
            }
        },
        "tracks": [
        ],
        "truths": [
        ],
        "btagging_link": "btaggingLink"
    }
}

